[gd_scene load_steps=2 format=2]

[ext_resource path="res://Prologue.gd" type="Script" id=2]

[node name="Prologue" type="Node2D"]
script = ExtResource( 2 )

[node name="Label" type="Label" parent="."]
margin_left = 16.0
margin_top = 16.0
margin_right = 368.0
margin_bottom = 200.0
text = "In an extremely unlikely and tragic chain of events,
the entire crew of the Undivine Comedy Theatre lost their lives.
... Just when their performance was about to reach its climactic ending."
align = 1
valign = 1
autowrap = true
__meta__ = {
"_edit_use_anchors_": false
}
